…
I read the diary into R using the pdf_data function from pdftools:

library(pdftools)

path <- "https://www.beehive.govt.nz/sites/default/files/2019-05/October%202017%20-%20December%202018_0.pdf"
pages <- pdf_data(path)

pdf_data scans each page for distinct words, encloses these words in bounding boxes, and stores the coordinates and content of each box as a list of tibbles.
For example, the diary’s first page contains the following data:

library(dplyr)

pages[[1]]

## # A tibble: 336 x 6
##    width height     x     y space text    
##    <int>  <int> <int> <int> <lgl> <chr>   
##  1    46     20    72    75 TRUE  David   
##  2    52     20   122    75 TRUE  Parker  
##  3    42     20   179    75 TRUE  Diary   
##  4    77     20   226    75 FALSE Summary 
##  5    11     11    72   102 TRUE  26      
##  6    36     11    85   102 TRUE  October 
##  7    22     11   124   102 TRUE  2017    
##  8     3     11   149   102 TRUE  -       
##  9    11     11   155   102 TRUE  31      
## 10    46     11   168   102 TRUE  December
## # … with 326 more rows

The x and y columns provide the horizontal and vertical displacement, in pixels, of each bounding box from the top-left corner of the page.
The left-most boxes sit 72 pixels from the left page boundary, allowing me to identify table rows by the cumulative number of boxes for which x equals 72.

pages[[1]] %>%
  arrange(y, x) %>%
  mutate(row = cumsum(x == 72)) %>%
  filter(cumsum(x == 72 & text == "Date") > 0)  # Remove preamble

## # A tibble: 91 x 7
##    width height     x     y space text         row
##    <int>  <int> <int> <int> <lgl> <chr>      <int>
##  1    21     11    72   355 FALSE Date          14
##  2    46     11   149   355 TRUE  Scheduled     14
##  3    22     11   198   355 FALSE Time          14
##  4    37     11   235   355 FALSE Meeting       14
##  5    38     11   390   355 FALSE Location      14
##  6    21     11   504   355 FALSE With          14
##  7    39     11   630   355 FALSE Portfolio     14
##  8    53     11    72   382 FALSE 26/10/2017    15
##  9    25     11   149   382 TRUE  11:00         15
## 10     3     11   177   382 TRUE  -             15
## # … with 81 more rows
…
I define the clean_data function in the appendix below.

The resulting tibble diary contains 1,553 rows, each of which describes a unique entry scheduled between October 2017 and December 2018.
I select entries scheduled during the 2018 calendar year:

(data <- filter(diary, grepl("2018", date)))

## # A tibble: 1,347 x 6
##    date   scheduled_time meeting         location    with       portfolio  
##    <chr>  <chr>          <chr>           <chr>       <chr>      <chr>      
##  1 15/01… 10:00 - 11:00  Meeting with F… Beehive     Treasury … Associate …
##  2 15/01… 14:00 - 14:30  Meeting with M… Beehive     MFAT offi… Trade and …
##  3 15/01… 15:00 - 15:30  Meeting with M… Beehive     MBIE offi… Economic D…
##  4 16/01… 09:30 - 10:15  Meeting with E… Selwyn      Environme… Environment
##  5 16/01… 10:40 - 11:40  Meeting with N… Springston  Ngai Tahu… Environment
##  6 16/01… 12:00 - 12:30  Meeting with f… Canterbury  Farm owne… Environment
##  7 16/01… 12:40 - 13:40  Working Lunch … Canterbury  Te Waihor… Environment
##  8 16/01… 13:50 - 14:45  Meeting with f… Leeston     Farm owne… Environment
##  9 16/01… 16:30 - 17:30  Meeting with S… Middleton,… Syft Tech… Economic D…
## 10 17/01… 09:30 - 10:00  Meeting with C… Beehive     Cabinet O… All        
## # … with 1,337 more rows
…
Analysing word frequencies

I analyse the frequency of words used in the with column of data.
These frequencies provide insight into Minister Parker’s interactions with different organisations.
I use the unnest_tokens function from tidytext to identify unique words and the count function from dplyr to count word frequencies.

library(tidytext)

data %>%
  unnest_tokens(word, with) %>%
  anti_join(get_stopwords()) %>%  # Remove stop words
  count(word, sort = TRUE)

## # A tibble: 674 x 2
##    word          n
##    <chr>     <int>
##  1 attending   290
##  2 officials   272
##  3 minister    198
##  4 ministers   108
##  5 mfe          89
##  6 mbie         82
##  7 jones        76
##  8 sage         58
##  9 twyford      56
## 10 mfat         53
## # … with 664 more rows
…
$$ \mathrm{idf}(w) = -\ln\left(\frac{\text{Number of documents containing word}\ w}{\text{Number of documents}}\right) $$

provides a normalisation factor that penalises ubiquitous words.
The tf-idf score

$$ \text{tf-idf}(w,d) = \mathrm{tf}(w, d) \cdot \mathrm{idf}(w) $$

thus measures the prevalence of word $w$ in document $d$, normalised by that word’s prevalence in other documents.
I interpret the set of entries associated with each portfolio as a document and use the bind_tf_idf function from tidytext to compute word-portfolio tf-idf scores:

word_portfolio_pairs %>%
  count(word, portfolio) %>%
  bind_tf_idf(word, portfolio, n)

## # A tibble: 1,066 x 6
##    word        portfolio                   n       tf   idf   tf_idf
##    <chr>       <chr>                   <int>    <dbl> <dbl>    <dbl>
##  1 a           Associate Finance           1 0.00285  0.693 0.00197 
##  2 a           Environment                 1 0.000739 0.693 0.000512
##  3 a           Trade and Export Growth     2 0.00277  0.693 0.00192 
##  4 accelerator Economic Development        1 0.00137  1.79  0.00245 
##  5 acting      Attorney-General            1 0.00215  1.79  0.00385 
##  6 action      Trade and Export Growth     1 0.00139  1.79  0.00248 
##  7 adrian      Economic Development        1 0.00137  1.79  0.00245 
##  8 advisory    Economic Development        2 0.00273  0.693 0.00189 
##  9 advisory    Environment                 1 0.000739 0.693 0.000512
## 10 advisory    Trade and Export Growth     1 0.00139  0.693 0.000960
## # … with 1,056 more rows
…
