…
Next, let's introduce our selection criteria:

```r
df <- df %>%
  tidyr::crossing(criterion = c('x >= 0', 'y >= 0')) %>%
  rowwise() %>%  # eval is annoying to vectorise
  mutate(selected = eval(parse(text = criterion))) %>%
  ungroup()

df
```

```
## # A tibble: 200 x 5
##        x       u      y criterion selected
##    <dbl>   <dbl>  <dbl> <chr>     <lgl>   
##  1 -2.22 -0.0125 -2.24  x >= 0    FALSE   
##  2 -2.22 -0.0125 -2.24  y >= 0    FALSE   
##  3 -1.56 -1.12   -2.68  x >= 0    FALSE   
##  4 -1.56 -1.12   -2.68  y >= 0    FALSE   
##  5 -1.54  0.577  -0.963 x >= 0    FALSE   
##  6 -1.54  0.577  -0.963 y >= 0    FALSE   
##  7 -1.44 -1.39   -2.83  x >= 0    FALSE   
##  8 -1.44 -1.39   -2.83  y >= 0    FALSE   
##  9 -1.43 -0.543  -1.97  x >= 0    FALSE   
## 10 -1.43 -0.543  -1.97  y >= 0    FALSE   
## # … with 190 more rows
```
…
