…
The working paper data exclude duplicates (e.g., papers published in multiple series) but include revisions, which capture continued development of (and collaboration on) research ideas that I believe should be acknowledged.

## Program affiliations

The NBER organizes its research into [programs](https://www.nber.org/programs-projects/programs-working-groups), each of which "corresponds loosely to a traditional field of study within economics."
nberwp now provides a table of paper-program correspondences

```r
paper_programs
```

```
## # A tibble: 53,996 x 2
##    paper program
##    <chr> <chr>  
##  1 w0074 EFG    
##  2 w0087 IFM    
##  3 w0087 ITI    
##  4 w0107 PE     
##  5 w0116 PE     
##  6 w0117 LS     
##  7 w0129 HE     
##  8 w0131 IFM    
##  9 w0131 ITI    
## 10 w0134 HE     
## # … with 53,986 more rows
```

as well as a table of program descriptions:

```r
programs
```

```
## # A tibble: 21 x 3
##    program program_desc                        program_category   
##    <chr>   <chr>                               <chr>              
##  1 AG      Economics of Aging                  Micro              
##  2 AP      Asset Pricing                       Finance            
##  3 CF      Corporate Finance                   Finance            
##  4 CH      Children                            Micro              
##  5 DAE     Development of the American Economy Micro              
##  6 DEV     Development Economics               Micro              
##  7 ED      Economics of Education              Micro              
##  8 EEE     Environment and Energy Economics    Micro              
##  9 EFG     Economic Fluctuations and Growth    Macro/International
## 10 HC      Health Care                         Micro              
## # … with 11 more rows
```
…
## Authorships

nberwp now contains information about working papers' (co-)authors:

```r
authors
```

```
## # A tibble: 15,437 x 4
##    author  name             user_nber        user_repec
##    <chr>   <chr>            <chr>            <chr>     
##  1 w0001.1 Finis Welch      finis_welch      <NA>      
##  2 w0002.1 Barry R Chiswick barry_chiswick   pch425    
##  3 w0003.1 Swarnjit S Arora swarnjit_arora   <NA>      
##  4 w0004.1 Lee A Lillard    <NA>             pli669    
##  5 w0005.1 James P Smith    james_smith      psm28     
##  6 w0006.1 Victor Zarnowitz victor_zarnowitz <NA>      
##  7 w0007.1 Lewis C Solmon   <NA>             <NA>      
##  8 w0008.1 Merle Yahr Weiss <NA>             <NA>      
##  9 w0008.2 Robert E Lipsey  robert_lipsey    pli259    
## 10 w0010.1 Paul W Holland   <NA>             <NA>      
## # … with 15,427 more rows
```

The `author` column contains unique author identifiers, constructed by concatenating each author's debut paper and their position on that paper's (alphabetized) byline.
This construction ensures that `author` values do not change when I add newly published papers to the data.
The `user_nber` column contains authors' usernames on the NBER website; the `user_repec` column contains authors' [RePEc](https://ideas.repec.org) IDs.
Some authors do not have an NBER username or RePEc ID, indicated by `NA` values in the appropriate column.

nberwp also provides a table of paper-author correspondences:

```r
paper_authors
```

```
## # A tibble: 67,090 x 2
##    paper author 
##    <chr> <chr>  
##  1 w0001 w0001.1
##  2 w0002 w0002.1
##  3 w0003 w0003.1
##  4 w0004 w0004.1
##  5 w0005 w0005.1
##  6 w0006 w0006.1
##  7 w0007 w0007.1
##  8 w0008 w0008.1
##  9 w0008 w0008.2
## 10 w0009 w0004.1
## # … with 67,080 more rows
```
…
