…
```r
library(dplyr)
library(stravadata)

rtb_streams <- activities %>%
  filter(name == 'Round the Bays' & grepl('2020', start_time)) %>%
  select(id) %>%
  left_join(streams) %>%
  select(distance, time, speed, hr, cadence)

rtb_streams
```

```
## # A tibble: 1,543 x 5
##    distance  time speed    hr cadence
##       <dbl> <dbl> <dbl> <dbl>   <dbl>
##  1      0       0   0     110       0
##  2      1.7     1   1.7   110       0
##  3     12.5     6   2.1   109      76
##  4     22.2    10   2.3   113      75
##  5     27.3    12   2.5   112      77
##  6     30.1    14   2.2   117      76
##  7     33.2    15   2.2   119      76
##  8     39.4    17   2.4   123      76
##  9     42.9    18   2.6   126      76
## 10     53.4    21   3.4   130      79
## # … with 1,533 more rows
```
…
